(module Switch_Push_Mini_LED_SPDT_[Left] (layer F.Cu) (tedit 5FCA6CCE)
  (descr "though-hole mounted slide switch, LongPads")
  (tags "Switch Slide SPDT THT 2.54mm LongPads")
  (fp_text reference REF** (at 7.62 -15.24) (layer F.SilkS)
    (effects (font (size 1 1) (thickness 0.15)))
  )
  (fp_text value Switch_Push_Mini_LED_SPDT_[Left] (at 3.81 5.12) (layer F.Fab)
    (effects (font (size 1 1) (thickness 0.15)))
  )
  (fp_line (start 9.652 -7.366) (end 8.89 -6.35) (layer F.SilkS) (width 0.15))
  (fp_line (start -2.032 -7.366) (end -1.27 -6.35) (layer F.SilkS) (width 0.15))
  (fp_line (start 9.398 -13.462) (end 9.652 -13.462) (layer F.SilkS) (width 0.15))
  (fp_line (start 9.652 -13.462) (end 9.652 -7.366) (layer F.SilkS) (width 0.15))
  (fp_line (start 9.652 -7.366) (end 9.398 -7.366) (layer F.SilkS) (width 0.15))
  (fp_line (start 8.89 2.54) (end 9.906 3.556) (layer F.SilkS) (width 0.15))
  (fp_line (start 8.89 -6.35) (end 8.89 2.54) (layer F.SilkS) (width 0.15))
  (fp_line (start 8.89 2.54) (end -1.27 2.54) (layer F.SilkS) (width 0.15))
  (fp_line (start -1.27 -6.35) (end 8.89 -6.35) (layer F.SilkS) (width 0.15))
  (fp_line (start -1.27 -6.35) (end -1.27 2.54) (layer F.SilkS) (width 0.15))
  (fp_line (start -1.27 2.54) (end -2.286 3.556) (layer F.SilkS) (width 0.15))
  (fp_line (start -2.032 -13.462) (end 9.398 -13.462) (layer F.SilkS) (width 0.15))
  (fp_line (start 9.398 -7.366) (end -2.032 -7.366) (layer F.SilkS) (width 0.15))
  (fp_line (start -2.032 -7.366) (end -2.032 -13.462) (layer F.SilkS) (width 0.15))
  (fp_line (start 5.334 -9.144) (end 5.334 -8.89) (layer F.SilkS) (width 0.15))
  (fp_line (start 5.334 -11.176) (end 5.334 -11.43) (layer F.SilkS) (width 0.15))
  (fp_circle (center 3.81 -10.16) (end 5.334 -10.16) (layer F.Fab) (width 0.1))
  (fp_line (start 5.334 -11.43) (end 5.334 -8.89) (layer F.Fab) (width 0.1))
  (fp_line (start -2.59 -14.08) (end 10.21 -14.08) (layer F.CrtYd) (width 0.05))
  (fp_line (start 10.21 -14.08) (end 10.21 3.92) (layer F.CrtYd) (width 0.05))
  (fp_line (start 10.21 3.92) (end -2.59 3.92) (layer F.CrtYd) (width 0.05))
  (fp_line (start -2.59 3.92) (end -2.59 -14.08) (layer F.CrtYd) (width 0.05))
  (fp_line (start -1.19 -13.58) (end 9.71 -13.58) (layer F.Fab) (width 0.1))
  (fp_line (start -2.09 -12.68) (end -1.19 -13.58) (layer F.Fab) (width 0.1))
  (fp_line (start 9.71 -13.58) (end 9.71 3.42) (layer F.Fab) (width 0.1))
  (fp_line (start 9.71 3.42) (end -2.09 3.42) (layer F.Fab) (width 0.1))
  (fp_line (start -2.09 3.42) (end -2.09 -12.68) (layer F.Fab) (width 0.1))
  (fp_line (start 9.96 -13.83) (end -2.34 -13.83) (layer F.SilkS) (width 0.15))
  (fp_line (start -2.34 -13.83) (end -2.34 3.67) (layer F.SilkS) (width 0.15))
  (fp_line (start -2.34 3.67) (end 9.96 3.67) (layer F.SilkS) (width 0.15))
  (fp_line (start 9.96 -13.83) (end 9.96 3.67) (layer F.SilkS) (width 0.15))
  (fp_text user LED (at 0 -10.16) (layer F.Fab)
    (effects (font (size 1 1) (thickness 0.15)))
  )
  (fp_arc (start 3.81 -10.16) (end 4.826 -9.144) (angle 90) (layer F.SilkS) (width 0.15))
  (fp_arc (start 3.81 -10.16) (end 4.826 -11.176) (angle -90) (layer F.SilkS) (width 0.15))
  (fp_arc (start 3.81 -10.16) (end 5.334 -8.89) (angle 110) (layer F.SilkS) (width 0.15))
  (fp_arc (start 3.81 -10.16) (end 5.334 -11.43) (angle -110) (layer F.SilkS) (width 0.15))
  (fp_arc (start 3.81 -10.16) (end 5.334 -11.43) (angle -280) (layer F.Fab) (width 0.1))
  (fp_text user %R (at 3.81 -2.54) (layer F.Fab)
    (effects (font (size 1 1) (thickness 0.15)))
  )
  (fp_text user Left (at 0 -15.24) (layer F.SilkS)
    (effects (font (size 1 1) (thickness 0.15)))
  )
  (pad "" np_thru_hole circle (at 0 2.286) (size 1 1) (drill 1) (layers *.Cu))
  (pad 1 thru_hole rect (at 0 0) (size 1.6 1.6) (drill 0.8) (layers *.Cu *.Mask))
  (pad 2 thru_hole circle (at 7.62 0) (size 1.6 1.6) (drill 0.8) (layers *.Cu *.Mask))
  (pad 4 thru_hole circle (at 0 -5.08) (size 1.6 1.6) (drill 0.8) (layers *.Cu *.Mask))
  (pad 3 thru_hole circle (at 7.62 -5.08) (size 1.6 1.6) (drill 0.8) (layers *.Cu *.Mask))
  (pad 5 thru_hole circle (at 2.54 -10.16) (size 1.6 1.6) (drill 0.8) (layers *.Cu *.Mask))
  (pad 6 thru_hole rect (at 5.08 -10.16) (size 1.6 1.6) (drill 0.8) (layers *.Cu *.Mask))
  (pad "" np_thru_hole circle (at 7.62 -12.446) (size 1 1) (drill 1) (layers *.Cu))
)
