(module TO-92_Inline_Narrow_Oval_Inverse (layer F.Cu) (tedit 5FC81026)
  (descr "TO-92 leads in-line, narrow, oval pads, drill 0.6mm (see NXP sot054_po.pdf)")
  (tags "to-92 sc-43 sc-43a sot54 PA33 transistor")
  (fp_text reference REF** (at 1.2827 -2.8361) (layer F.SilkS)
    (effects (font (size 1 1) (thickness 0.15)))
  )
  (fp_text value TO-92_Inline_Narrow_Oval_Inverse (at 1.2827 3.5139) (layer F.Fab)
    (effects (font (size 1 1) (thickness 0.15)))
  )
  (fp_line (start 4.0127 2.7339) (end -1.4473 2.7339) (layer F.CrtYd) (width 0.05))
  (fp_line (start 4.0127 2.7339) (end 4.0127 -2.0061) (layer F.CrtYd) (width 0.05))
  (fp_line (start -1.4473 -2.0061) (end -1.4473 2.7339) (layer F.CrtYd) (width 0.05))
  (fp_line (start -1.4473 -2.0061) (end 4.0127 -2.0061) (layer F.CrtYd) (width 0.05))
  (fp_line (start -0.53 -1.85) (end 3.07 -1.85) (layer F.SilkS) (width 0.12))
  (fp_line (start -0.5 -1.75) (end 3 -1.75) (layer F.Fab) (width 0.1))
  (fp_arc (start 1.27 0) (end 1.27 2.6) (angle -135) (layer F.SilkS) (width 0.12))
  (fp_arc (start 1.27 0) (end 1.27 2.48) (angle 135) (layer F.Fab) (width 0.1))
  (fp_arc (start 1.27 0) (end 1.27 2.6) (angle 135) (layer F.SilkS) (width 0.12))
  (fp_arc (start 1.27 0) (end 1.27 2.48) (angle -135) (layer F.Fab) (width 0.1))
  (fp_text user %R (at 1.2827 -2.8361) (layer F.Fab)
    (effects (font (size 1 1) (thickness 0.15)))
  )
  (pad 1 thru_hole rect (at 0 0) (size 0.9 1.5) (drill 0.6) (layers *.Cu *.Mask))
  (pad 3 thru_hole oval (at 2.54 0) (size 0.9 1.5) (drill 0.6) (layers *.Cu *.Mask))
  (pad 2 thru_hole oval (at 1.27 0) (size 0.9 1.5) (drill 0.6) (layers *.Cu *.Mask))
  (model ${KISYS3DMOD}/Package_TO_SOT_THT.3dshapes/TO-92_Inline.step
    (offset (xyz 2.5 0 0))
    (scale (xyz 1 1 1))
    (rotate (xyz 0 0 -180))
  )
)
