(module TO-92_Inline_2N3704 (layer F.Cu) (tedit 5FCE96E2)
  (descr "TO-92 leads in-line, narrow, oval pads, drill 0.75mm (see NXP sot054_po.pdf)")
  (tags "to-92 sc-43 sc-43a sot54 PA33 transistor")
  (fp_text reference REF** (at 1.27 -2.794 -180) (layer F.SilkS)
    (effects (font (size 1 1) (thickness 0.15)))
  )
  (fp_text value 2N3704 (at 1.27 3.4925 -180) (layer F.SilkS)
    (effects (font (size 1 1) (thickness 0.15)))
  )
  (fp_line (start 3.07 -1.85) (end -0.53 -1.85) (layer F.SilkS) (width 0.12))
  (fp_line (start 3.04 -1.75) (end -0.46 -1.75) (layer F.Fab) (width 0.1))
  (fp_line (start -1.4595 2.7305) (end 4.0005 2.7305) (layer F.CrtYd) (width 0.05))
  (fp_line (start -1.4605 -2.0095) (end -1.4605 2.7305) (layer F.CrtYd) (width 0.05))
  (fp_line (start 4 2.7334) (end 4 -2.0066) (layer F.CrtYd) (width 0.05))
  (fp_line (start 4 -2.0066) (end -1.46 -2.0066) (layer F.CrtYd) (width 0.05))
  (fp_text user %R (at 1.27 0 -180) (layer F.Fab)
    (effects (font (size 1 1) (thickness 0.15)))
  )
  (fp_arc (start 1.27 0) (end 1.27 2.48) (angle 135) (layer F.Fab) (width 0.1))
  (fp_arc (start 1.27 0) (end 1.27 2.6) (angle -135) (layer F.SilkS) (width 0.12))
  (fp_arc (start 1.27 0) (end 1.27 2.48) (angle -135) (layer F.Fab) (width 0.1))
  (fp_arc (start 1.27 0) (end 1.27 2.6) (angle 135) (layer F.SilkS) (width 0.12))
  (pad 2 thru_hole oval (at 1.27 0) (size 1.05 1.5) (drill 0.75) (layers *.Cu *.Mask))
  (pad 3 thru_hole oval (at 2.54 0) (size 1.05 1.5) (drill 0.75) (layers *.Cu *.Mask))
  (pad 1 thru_hole rect (at 0 0) (size 1.05 1.5) (drill 0.75) (layers *.Cu *.Mask))
  (model ${KISYS3DMOD}/Package_TO_SOT_THT.3dshapes/TO-92_Inline.wrl
    (offset (xyz 2.5 0 0))
    (scale (xyz 1 1 1))
    (rotate (xyz 0 0 -180))
  )
)
