(module housing (layer F.Cu) (tedit 603EA375)
  (descr housing)
  (zone_connect 0)
  (fp_text reference REF** (at 30.48 -15.748) (layer Dwgs.User)
    (effects (font (size 3 3) (thickness 0.15)))
  )
  (fp_text value housing (at 0 6.096) (layer Dwgs.User)
    (effects (font (size 4 4) (thickness 0.15)))
  )
  (fp_line (start 20.32 -10.668) (end 23.368 -13.208) (layer Dwgs.User) (width 0.12))
  (fp_line (start 20.32 -10.668) (end -20.32 -10.668) (layer Dwgs.User) (width 0.12))
  (fp_line (start 23.368 -1.016) (end 20.32 2.032) (layer Dwgs.User) (width 0.12))
  (fp_line (start 23.368 -15.24) (end 23.368 -1.016) (layer Dwgs.User) (width 0.12))
  (fp_line (start 23.368 -15.24) (end 20.32 -12.7) (layer Dwgs.User) (width 0.12))
  (fp_line (start -15.24 -15.24) (end 23.368 -15.24) (layer Dwgs.User) (width 0.12))
  (fp_line (start -20.32 -12.7) (end -15.24 -15.24) (layer Dwgs.User) (width 0.12))
  (fp_line (start -20.32 -12.7) (end -20.32 2.032) (layer Dwgs.User) (width 0.12))
  (fp_line (start 20.32 -12.7) (end -20.32 -12.7) (layer Dwgs.User) (width 0.12))
  (fp_line (start 20.32 2.032) (end 20.32 -12.7) (layer Dwgs.User) (width 0.12))
  (fp_line (start -20.32 2.032) (end 20.32 2.032) (layer Dwgs.User) (width 0.12))
)
