EESchema Schematic File Version 4
EELAYER 30 0
EELAYER END
$Descr A4 11693 8268
encoding utf-8
Sheet 1 1
Title "project title"
Date "2021-06-13"
Rev "A"
Comp "rth. engineering"
Comment1 "©2021"
Comment2 ""
Comment3 "second line"
Comment4 "first line"
$EndDescr
$EndSCHEMATC
